{
  "categoryList": [
    {
      "id": 35,
      "name": "Performance Fabrics",
      "description": null,
      "canonical_url": "collections/performance-fabrics.html",
      "children_count": "0",
      "image": null,
      "is_anchor": 1,
      "meta_description": null,
      "meta_keywords": null,
      "meta_title": null,
      "product_count": 23,
      "display_mode": "PRODUCTS",
      "video_code": null,
      "ans_set": null,
      "que_set": null,
      "enable_custom_title": 0,
      "custom_title": null,
      "cms_block": null,
      "children": []
    }
  ],
  "products": {
    "total_count": 23,
    "page_info": {
      "current_page": 1,
      "total_pages": 2,
      "page_size": 15
    },
    "items": [
      {
        "canonical_url": "sybil-running-short.html",
        "id": 2003,
        "name": "Sybil Running Short",
        "new": 0,
        "rating_summary": 93,
        "review_count": 3,
        "sku": "WSH08",
        "special_price": null,
        "custom_image": "http://magento7.nz/media/catalog/product/w/s/wsh08-purple_main_2.jpg",
        "product_type": "configurable",
        "final_price": 44,
        "discount_percent": 0,
        "url_key": "sybil-running-short",
        "image": {
          "label": "Sybil Running Short",
          "url": null
        },
        "price": {
          "regularPrice": {
            "amount": {
              "currency": "USD",
              "value": 44
            }
          }
        },
        "short_description": {
          "html": ""
        }
      },
      {
        "canonical_url": "gwen-drawstring-bike-short.html",
        "id": 1951,
        "name": "Gwen Drawstring Bike Short",
        "new": 1,
        "rating_summary": 90,
        "review_count": 2,
        "sku": "WSH03",
        "special_price": null,
        "custom_image": "http://magento7.nz/media/catalog/product/w/s/wsh03-gray_main_4.jpg",
        "product_type": "configurable",
        "final_price": 50,
        "discount_percent": 0,
        "url_key": "gwen-drawstring-bike-short",
        "image": {
          "label": "Gwen Drawstring Bike Short",
          "url": null
        },
        "price": {
          "regularPrice": {
            "amount": {
              "currency": "USD",
              "value": 50
            }
          }
        },
        "short_description": {
          "html": ""
        }
      },
      {
        "canonical_url": "deirdre-relaxed-fit-capri.html",
        "id": 1896,
        "name": "Deirdre Relaxed-Fit Capri",
        "new": 0,
        "rating_summary": 0,
        "review_count": 0,
        "sku": "WP12",
        "special_price": null,
        "custom_image": "http://magento7.nz/media/catalog/product/w/p/wp12-gray_main_2.jpg",
        "product_type": "configurable",
        "final_price": 63,
        "discount_percent": 0,
        "url_key": "deirdre-relaxed-fit-capri",
        "image": {
          "label": "Deirdre Relaxed-Fit Capri",
          "url": null
        },
        "price": {
          "regularPrice": {
            "amount": {
              "currency": "USD",
              "value": 63
            }
          }
        },
        "short_description": {
          "html": ""
        }
      },
      {
        "canonical_url": "aeon-capri.html",
        "id": 1861,
        "name": "Aeon Capri",
        "new": 0,
        "rating_summary": 0,
        "review_count": 0,
        "sku": "WP07",
        "special_price": null,
        "custom_image": "http://magento7.nz/media/catalog/product/w/p/wp07-black_main_2.jpg",
        "product_type": "configurable",
        "final_price": 48,
        "discount_percent": 0,
        "url_key": "aeon-capri",
        "image": {
          "label": "Aeon Capri",
          "url": null
        },
        "price": {
          "regularPrice": {
            "amount": {
              "currency": "USD",
              "value": 48
            }
          }
        },
        "short_description": {
          "html": ""
        }
      },
      {
        "canonical_url": "emma-leggings.html",
        "id": 1826,
        "name": "Emma Leggings",
        "new": 0,
        "rating_summary": 93,
        "review_count": 3,
        "sku": "WP02",
        "special_price": null,
        "custom_image": "http://magento7.nz/media/catalog/product/w/p/wp02-blue_main_2.jpg",
        "product_type": "configurable",
        "final_price": 42,
        "discount_percent": 0,
        "url_key": "emma-leggings",
        "image": {
          "label": "Emma Leggings",
          "url": null
        },
        "price": {
          "regularPrice": {
            "amount": {
              "currency": "USD",
              "value": 42
            }
          }
        },
        "short_description": {
          "html": ""
        }
      },
      {
        "canonical_url": "karmen-yoga-pant.html",
        "id": 1819,
        "name": "Karmen Yoga Pant",
        "new": 0,
        "rating_summary": 80,
        "review_count": 2,
        "sku": "WP01",
        "special_price": null,
        "custom_image": "http://magento7.nz/media/catalog/product/w/p/wp01-gray_main_2.jpg",
        "product_type": "configurable",
        "final_price": 39,
        "discount_percent": 0,
        "url_key": "karmen-yoga-pant",
        "image": {
          "label": "Karmen Yoga Pant",
          "url": null
        },
        "price": {
          "regularPrice": {
            "amount": {
              "currency": "USD",
              "value": 39
            }
          }
        },
        "short_description": {
          "html": ""
        }
      },
      {
        "canonical_url": "antonia-racer-tank.html",
        "id": 1796,
        "name": "Antonia Racer Tank",
        "new": 0,
        "rating_summary": 60,
        "review_count": 3,
        "sku": "WT08",
        "special_price": null,
        "custom_image": "http://magento7.nz/media/catalog/product/w/t/wt08-black_main_2.jpg",
        "product_type": "configurable",
        "final_price": 34,
        "discount_percent": 0,
        "url_key": "antonia-racer-tank",
        "image": {
          "label": "Antonia Racer Tank",
          "url": null
        },
        "price": {
          "regularPrice": {
            "amount": {
              "currency": "USD",
              "value": 34
            }
          }
        },
        "short_description": {
          "html": ""
        }
      },
      {
        "canonical_url": "maya-tunic.html",
        "id": 1780,
        "name": "Maya Tunic",
        "new": 0,
        "rating_summary": 80,
        "review_count": 1,
        "sku": "WT07",
        "special_price": null,
        "custom_image": "http://magento7.nz/media/catalog/product/w/t/wt07-green_main_2.jpg",
        "product_type": "configurable",
        "final_price": 29,
        "discount_percent": 0,
        "url_key": "maya-tunic",
        "image": {
          "label": "Maya Tunic",
          "url": null
        },
        "price": {
          "regularPrice": {
            "amount": {
              "currency": "USD",
              "value": 29
            }
          }
        },
        "short_description": {
          "html": ""
        }
      },
      {
        "canonical_url": "nona-fitness-tank.html",
        "id": 1732,
        "name": "Nona Fitness Tank",
        "new": 0,
        "rating_summary": 0,
        "review_count": 0,
        "sku": "WT04",
        "special_price": null,
        "custom_image": "http://magento7.nz/media/catalog/product/w/t/wt04-blue_main_2.jpg",
        "product_type": "configurable",
        "final_price": 39,
        "discount_percent": 0,
        "url_key": "nona-fitness-tank",
        "image": {
          "label": "Nona Fitness Tank",
          "url": null
        },
        "price": {
          "regularPrice": {
            "amount": {
              "currency": "USD",
              "value": 39
            }
          }
        },
        "short_description": {
          "html": ""
        }
      },
      {
        "canonical_url": "celeste-sports-bra.html",
        "id": 1636,
        "name": "Celeste Sports Bra",
        "new": 1,
        "rating_summary": 67,
        "review_count": 3,
        "sku": "WB03",
        "special_price": null,
        "custom_image": "http://magento7.nz/media/catalog/product/w/b/wb03-green_main_2.jpg",
        "product_type": "configurable",
        "final_price": 39,
        "discount_percent": 0,
        "url_key": "celeste-sports-bra",
        "image": {
          "label": "Celeste Sports Bra",
          "url": null
        },
        "price": {
          "regularPrice": {
            "amount": {
              "currency": "USD",
              "value": 39
            }
          }
        },
        "short_description": {
          "html": ""
        }
      },
      {
        "canonical_url": "radiant-tee.html",
        "id": 1556,
        "name": "Radiant Tee",
        "new": 0,
        "rating_summary": 60,
        "review_count": 3,
        "sku": "WS12",
        "special_price": null,
        "custom_image": "http://magento7.nz/media/catalog/product/w/s/ws12-orange_main_4.jpg",
        "product_type": "configurable",
        "final_price": 22,
        "discount_percent": 0,
        "url_key": "radiant-tee",
        "image": {
          "label": "Radiant Tee",
          "url": null
        },
        "price": {
          "regularPrice": {
            "amount": {
              "currency": "USD",
              "value": 22
            }
          }
        },
        "short_description": {
          "html": ""
        }
      },
      {
        "canonical_url": "karissa-v-neck-tee.html",
        "id": 1524,
        "name": "Karissa V-Neck Tee",
        "new": 0,
        "rating_summary": 80,
        "review_count": 3,
        "sku": "WS10",
        "special_price": null,
        "custom_image": "http://magento7.nz/media/catalog/product/w/s/ws10-red_main_2.jpg",
        "product_type": "configurable",
        "final_price": 32,
        "discount_percent": 0,
        "url_key": "karissa-v-neck-tee",
        "image": {
          "label": "Karissa V-Neck Tee",
          "url": null
        },
        "price": {
          "regularPrice": {
            "amount": {
              "currency": "USD",
              "value": 32
            }
          }
        },
        "short_description": {
          "html": ""
        }
      },
      {
        "canonical_url": "iris-workout-top.html",
        "id": 1428,
        "name": "Iris Workout Top",
        "new": 0,
        "rating_summary": 60,
        "review_count": 4,
        "sku": "WS03",
        "special_price": null,
        "custom_image": "http://magento7.nz/media/catalog/product/w/s/ws03-red_main_2.jpg",
        "product_type": "configurable",
        "final_price": 29,
        "discount_percent": 0,
        "url_key": "iris-workout-top",
        "image": {
          "label": "Iris Workout Top",
          "url": null
        },
        "price": {
          "regularPrice": {
            "amount": {
              "currency": "USD",
              "value": 29
            }
          }
        },
        "short_description": {
          "html": ""
        }
      },
      {
        "canonical_url": "olivia-1-4-zip-light-jacket.html",
        "id": 1396,
        "name": "Olivia 1/4 Zip Light Jacket",
        "new": 0,
        "rating_summary": 0,
        "review_count": 0,
        "sku": "WJ12",
        "special_price": null,
        "custom_image": "http://magento7.nz/media/catalog/product/w/j/wj12-blue_main_2.jpg",
        "product_type": "configurable",
        "final_price": 77,
        "discount_percent": 0,
        "url_key": "olivia-1-4-zip-light-jacket",
        "image": {
          "label": "Olivia 1/4 Zip Light Jacket",
          "url": null
        },
        "price": {
          "regularPrice": {
            "amount": {
              "currency": "USD",
              "value": 77
            }
          }
        },
        "short_description": {
          "html": ""
        }
      },
      {
        "canonical_url": "juno-jacket.html",
        "id": 1380,
        "name": "Juno Jacket",
        "new": 0,
        "rating_summary": 87,
        "review_count": 3,
        "sku": "WJ06",
        "special_price": null,
        "custom_image": "http://magento7.nz/media/catalog/product/w/j/wj06-purple_main_2.jpg",
        "product_type": "configurable",
        "final_price": 77,
        "discount_percent": 0,
        "url_key": "juno-jacket",
        "image": {
          "label": "Juno Jacket",
          "url": null
        },
        "price": {
          "regularPrice": {
            "amount": {
              "currency": "USD",
              "value": 77
            }
          }
        },
        "short_description": {
          "html": ""
        }
      }
    ],
    "aggregations": [
      {
        "attribute_code": "price",
        "count": 7,
        "label": "Price",
        "position": null,
        "options": [
          {
            "count": 5,
            "label": "20-30",
            "value": "20_30"
          },
          {
            "count": 9,
            "label": "30-40",
            "value": "30_40"
          },
          {
            "count": 2,
            "label": "40-50",
            "value": "40_50"
          },
          {
            "count": 2,
            "label": "50-60",
            "value": "50_60"
          },
          {
            "count": 2,
            "label": "60-70",
            "value": "60_70"
          },
          {
            "count": 2,
            "label": "70-80",
            "value": "70_80"
          },
          {
            "count": 1,
            "label": "80-90",
            "value": "80_90"
          }
        ]
      },
      {
        "attribute_code": "category_uid",
        "count": 16,
        "label": "Category",
        "position": null,
        "options": [
          {
            "count": 6,
            "label": "Women Bottoms",
            "value": "MjI="
          },
          {
            "count": 2,
            "label": "Shorts",
            "value": "Mjg="
          },
          {
            "count": 23,
            "label": "Performance Fabrics",
            "value": "MzU="
          },
          {
            "count": 4,
            "label": "New Luma Yoga Collection",
            "value": "OA=="
          },
          {
            "count": 4,
            "label": "Pants",
            "value": "Mjc="
          },
          {
            "count": 5,
            "label": "Pants",
            "value": "MzI="
          },
          {
            "count": 13,
            "label": "Women Tops",
            "value": "MjE="
          },
          {
            "count": 4,
            "label": "Bras & Tanks",
            "value": "MjY="
          },
          {
            "count": 4,
            "label": "Women Sale",
            "value": "MzA="
          },
          {
            "count": 3,
            "label": "Tees",
            "value": "MjU="
          },
          {
            "count": 3,
            "label": "Tees",
            "value": "MzM="
          },
          {
            "count": 4,
            "label": "Jackets",
            "value": "MjM="
          },
          {
            "count": 2,
            "label": "Hoodies & Sweatshirts",
            "value": "MjQ="
          },
          {
            "count": 4,
            "label": "Bottoms",
            "value": "MTM="
          },
          {
            "count": 3,
            "label": "Shorts",
            "value": "MTk="
          },
          {
            "count": 1,
            "label": "Pants",
            "value": "MTg="
          }
        ]
      },
      {
        "attribute_code": "material",
        "count": 19,
        "label": "Material",
        "position": 0,
        "options": [
          {
            "count": 8,
            "label": "Cocona&reg; performance fabric",
            "value": "142"
          },
          {
            "count": 6,
            "label": "Cotton",
            "value": "33"
          },
          {
            "count": 2,
            "label": "Fleece",
            "value": "144"
          },
          {
            "count": 1,
            "label": "Hemp",
            "value": "145"
          },
          {
            "count": 1,
            "label": "Mesh",
            "value": "36"
          },
          {
            "count": 3,
            "label": "LumaTech&trade;",
            "value": "147"
          },
          {
            "count": 6,
            "label": "Nylon",
            "value": "37"
          },
          {
            "count": 1,
            "label": "Lycra&reg;",
            "value": "148"
          },
          {
            "count": 7,
            "label": "Polyester",
            "value": "38"
          },
          {
            "count": 1,
            "label": "Microfiber",
            "value": "149"
          },
          {
            "count": 2,
            "label": "Rayon",
            "value": "39"
          },
          {
            "count": 6,
            "label": "Spandex",
            "value": "150"
          },
          {
            "count": 1,
            "label": "HeatTec&reg;",
            "value": "151"
          },
          {
            "count": 1,
            "label": "EverCool&trade;",
            "value": "152"
          },
          {
            "count": 8,
            "label": "Organic Cotton",
            "value": "153"
          },
          {
            "count": 1,
            "label": "TENCEL",
            "value": "154"
          },
          {
            "count": 6,
            "label": "CoolTech&trade;",
            "value": "155"
          },
          {
            "count": 1,
            "label": "Linen",
            "value": "157"
          },
          {
            "count": 1,
            "label": "Wool",
            "value": "158"
          }
        ]
      },
      {
        "attribute_code": "eco_collection",
        "count": 2,
        "label": "Eco Collection",
        "position": 0,
        "options": [
          {
            "count": 17,
            "label": "No",
            "value": "0"
          },
          {
            "count": 6,
            "label": "Yes",
            "value": "1"
          }
        ]
      },
      {
        "attribute_code": "performance_fabric",
        "count": 1,
        "label": "Performance Fabric",
        "position": 0,
        "options": [
          {
            "count": 23,
            "label": "Yes",
            "value": "1"
          }
        ]
      },
      {
        "attribute_code": "erin_recommends",
        "count": 1,
        "label": "Erin Recommends",
        "position": 0,
        "options": [
          {
            "count": 23,
            "label": "No",
            "value": "0"
          }
        ]
      },
      {
        "attribute_code": "new",
        "count": 2,
        "label": "New",
        "position": 0,
        "options": [
          {
            "count": 19,
            "label": "No",
            "value": "0"
          },
          {
            "count": 4,
            "label": "Yes",
            "value": "1"
          }
        ]
      },
      {
        "attribute_code": "sale",
        "count": 2,
        "label": "Sale",
        "position": 0,
        "options": [
          {
            "count": 19,
            "label": "No",
            "value": "0"
          },
          {
            "count": 4,
            "label": "Yes",
            "value": "1"
          }
        ]
      },
      {
        "attribute_code": "style_bottom",
        "count": 7,
        "label": "Style",
        "position": 0,
        "options": [
          {
            "count": 4,
            "label": "Base Layer",
            "value": "104"
          },
          {
            "count": 2,
            "label": "Basic",
            "value": "105"
          },
          {
            "count": 2,
            "label": "Capri",
            "value": "106"
          },
          {
            "count": 1,
            "label": "Snug",
            "value": "111"
          },
          {
            "count": 2,
            "label": "Sweatpants",
            "value": "112"
          },
          {
            "count": 1,
            "label": "Track Pants",
            "value": "114"
          },
          {
            "count": 4,
            "label": "Workout Pants",
            "value": "115"
          }
        ]
      },
      {
        "attribute_code": "style_general",
        "count": 17,
        "label": "Style",
        "position": 0,
        "options": [
          {
            "count": 2,
            "label": "Insulated",
            "value": "116"
          },
          {
            "count": 4,
            "label": "Jacket",
            "value": "117"
          },
          {
            "count": 2,
            "label": "Lightweight",
            "value": "119"
          },
          {
            "count": 1,
            "label": "Heavy Duty",
            "value": "121"
          },
          {
            "count": 1,
            "label": "Rain Coat",
            "value": "122"
          },
          {
            "count": 2,
            "label": "Hard Shell",
            "value": "123"
          },
          {
            "count": 1,
            "label": "Soft Shell",
            "value": "124"
          },
          {
            "count": 1,
            "label": "Windbreaker",
            "value": "125"
          },
          {
            "count": 1,
            "label": "&frac14; zip",
            "value": "127"
          },
          {
            "count": 5,
            "label": "Full Zip",
            "value": "128"
          },
          {
            "count": 1,
            "label": "Reversible",
            "value": "129"
          },
          {
            "count": 1,
            "label": "Bra",
            "value": "130"
          },
          {
            "count": 1,
            "label": "Sweatshirt",
            "value": "132"
          },
          {
            "count": 3,
            "label": "Tank",
            "value": "134"
          },
          {
            "count": 3,
            "label": "Tee",
            "value": "135"
          },
          {
            "count": 1,
            "label": "Pullover",
            "value": "136"
          },
          {
            "count": 2,
            "label": "Hoodie",
            "value": "137"
          }
        ]
      },
      {
        "attribute_code": "pattern",
        "count": 4,
        "label": "Pattern",
        "position": 0,
        "options": [
          {
            "count": 2,
            "label": "Color-Blocked",
            "value": "194"
          },
          {
            "count": 19,
            "label": "Solid",
            "value": "196"
          },
          {
            "count": 1,
            "label": "Solid-Highlight",
            "value": "197"
          },
          {
            "count": 2,
            "label": "Striped",
            "value": "198"
          }
        ]
      },
      {
        "attribute_code": "climate",
        "count": 11,
        "label": "Climate",
        "position": 0,
        "options": [
          {
            "count": 3,
            "label": "All-Weather",
            "value": "201"
          },
          {
            "count": 3,
            "label": "Cold",
            "value": "202"
          },
          {
            "count": 7,
            "label": "Cool",
            "value": "203"
          },
          {
            "count": 16,
            "label": "Indoor",
            "value": "204"
          },
          {
            "count": 6,
            "label": "Mild",
            "value": "205"
          },
          {
            "count": 1,
            "label": "Rainy",
            "value": "206"
          },
          {
            "count": 8,
            "label": "Spring",
            "value": "207"
          },
          {
            "count": 11,
            "label": "Warm",
            "value": "208"
          },
          {
            "count": 4,
            "label": "Windy",
            "value": "209"
          },
          {
            "count": 4,
            "label": "Wintry",
            "value": "210"
          },
          {
            "count": 5,
            "label": "Hot",
            "value": "211"
          }
        ]
      }
    ]
  }
}