{
  "categoryList": [
    {
      "id": 21,
      "name": "Women Tops",
      "description": "<style>#html-body [data-pb-style=PVPPJP4]{justify-content:flex-start;display:flex;flex-direction:column;background-position:left top;background-size:cover;background-repeat:no-repeat;background-attachment:scroll}</style><div data-content-type=\"row\" data-appearance=\"contained\" data-element=\"main\"><div data-enable-parallax=\"0\" data-parallax-speed=\"0.5\" data-background-images=\"{}\" data-background-type=\"image\" data-video-loop=\"true\" data-video-play-only-visible=\"true\" data-video-lazy-load=\"true\" data-video-fallback-src=\"\" data-element=\"inner\" data-pb-style=\"PVPPJP4\"><h2 data-content-type=\"heading\" data-appearance=\"default\" data-element=\"main\">CCTV Camera Price in Bangladesh:</h2><div data-content-type=\"text\" data-appearance=\"default\" data-element=\"main\"><p>With 1000 consecutive benefits in procuring individuals' privacy concerns,&nbsp;<a href=\"https://gctlsecurity.com/cctv-camera.html\">CCTV camera</a>&nbsp;are rising day by day. A research study discovered that installed nearly all of CCTV cameras in Asian countries. So, Bangladesh isn't out of from that. In any case, the use of CCTV has increased significantly in the past five years. An enormous number of CCTV cameras are controlled by authorities like police or army security functions and independently by the general public to monitor their companies or personal possessions. For contributing within this security issue, we provide <a href=\"https://gctlsecurity.com/cctv-camera/ip-camera.html\">IP CCTV camera with Best Price in Bangladesh</a> predicated all servicing. As such as in Dhaka city, today CCTV is employed as a mandatory in each business store and industrial places. Folks may also be using <a title=\"CCTV Camera\" href=\"https://gctlsecurity.com/cctv-camera/ip-camera/wifi-ip-camera.html\" target=\"_self\">WIFI CCTV Camera</a> within their house or other personal concern areas. But outside Dhaka city, there is not enough use of <a href=\"https://gctlsecurity.com/cctv-camera/hd-cctv-camera.html\">HD CCTV cameras</a>. Many people don't have any ideas about the benefits. Only some company offices and a few conscious folks are installing <a title=\"CCTV Camera in Bangladesh\" href=\"https://gctlsecurity.com/home\" target=\"_self\">CCTV Camera in Bangladesh</a> at their home areas. Our seasoned teams make sense of those and take perfect action to learn to work the <a href=\"https://en.wikipedia.org/wiki/Closed-circuit_television\">CCTV camera</a>s and get the full advantages.</p></div></div></div><div data-content-type=\"html\" data-appearance=\"default\" data-element=\"main\"></div>",
      "canonical_url": "women/tops-women.html",
      "children_count": "4",
      "image": "http://magento7.nz/media/catalog/category/banner-1.jpeg",
      "is_anchor": 1,
      "meta_description": null,
      "meta_keywords": null,
      "meta_title": null,
      "product_count": 50,
      "display_mode": "PRODUCTS_AND_PAGE",
      "video_code": "lQ2eJO2Q7fE",
      "ans_set": "Because of its orbit and our perspective on Earth, we sometimes see the moon during daylight.#\r\nThe sky appears blue due to the scattering of sunlight by the atmosphere.#\r\nIt's uncertain, but many scientists believe it's possible as we explore more of space.#\r\nThe Earth weighs approximately 5.972 × 10^24 kg.#\r\nAirplanes stay up due to the lift generated by their wings as air flows over them.#",
      "que_set": "Why is the moon sometimes out during the day?#\r\nWhy is the sky blue?#\r\nWill we ever discover aliens?#\r\nHow much does the Earth weigh?#\r\nHow do airplanes stay up?#",
      "enable_custom_title": 1,
      "custom_title": "Best Women Tops",
      "cms_block": {
        "identifier": "w_t_cms_block",
        "content": "<style>#html-body [data-pb-style=LDSDRKT]{justify-content:flex-start;display:flex;flex-direction:column;background-position:left top;background-size:cover;background-repeat:no-repeat;background-attachment:scroll}</style><div data-content-type=\"row\" data-appearance=\"contained\" data-element=\"main\"><div data-enable-parallax=\"0\" data-parallax-speed=\"0.5\" data-background-images=\"{}\" data-background-type=\"image\" data-video-loop=\"true\" data-video-play-only-visible=\"true\" data-video-lazy-load=\"true\" data-video-fallback-src=\"\" data-element=\"inner\" data-pb-style=\"LDSDRKT\"><div data-content-type=\"text\" data-appearance=\"default\" data-element=\"main\"><p>Germany Computer and Telecom Ltd-GCTL the professional CCTV Camera Supplier and Installation Company in Bangladesh. We are Germany Computer and Telecom Ltd-(GCTL) is one of the Best CCTV Camera Dealer, Importer, Supplier, Distributor, Wholesaler Company in Bangladesh. If you are looking for reliable Dahua CCTV Camera installation in Bangladesh, why not get the benefits to hire professionals from GCTL Technician.</p></div></div></div>"
      },
      "children": [
        {
          "canonical_url": "women/tops-women/jackets-women.html",
          "name": "Jackets",
          "position": 1,
          "url_key": "jackets-women"
        },
        {
          "canonical_url": "women/tops-women/hoodies-and-sweatshirts-women.html",
          "name": "Hoodies & Sweatshirts",
          "position": 2,
          "url_key": "hoodies-and-sweatshirts-women"
        },
        {
          "canonical_url": "women/tops-women/tees-women.html",
          "name": "Tees",
          "position": 3,
          "url_key": "tees-women"
        },
        {
          "canonical_url": "women/tops-women/tanks-women.html",
          "name": "Bras & Tanks",
          "position": 4,
          "url_key": "tanks-women"
        }
      ]
    }
  ],
  "products": {
    "total_count": 50,
    "page_info": {
      "current_page": 1,
      "total_pages": 4,
      "page_size": 15
    },
    "items": [
      {
        "canonical_url": "breathe-easy-tank.html",
        "id": 1812,
        "name": "Breathe-Easy Tank",
        "new": 0,
        "rating_summary": 70,
        "review_count": 2,
        "sku": "WT09",
        "special_price": null,
        "custom_image": "http://magento7.nz/media/catalog/product/w/t/wt09-white_main_2.jpg",
        "product_type": "configurable",
        "final_price": 34,
        "discount_percent": 0,
        "url_key": "breathe-easy-tank",
        "image": {
          "label": "Breathe-Easy Tank",
          "url": null
        },
        "price": {
          "regularPrice": {
            "amount": {
              "currency": "USD",
              "value": 34
            }
          }
        },
        "short_description": {
          "html": ""
        }
      },
      {
        "canonical_url": "antonia-racer-tank.html",
        "id": 1796,
        "name": "Antonia Racer Tank",
        "new": 0,
        "rating_summary": 60,
        "review_count": 3,
        "sku": "WT08",
        "special_price": null,
        "custom_image": "http://magento7.nz/media/catalog/product/w/t/wt08-black_main_2.jpg",
        "product_type": "configurable",
        "final_price": 34,
        "discount_percent": 0,
        "url_key": "antonia-racer-tank",
        "image": {
          "label": "Antonia Racer Tank",
          "url": null
        },
        "price": {
          "regularPrice": {
            "amount": {
              "currency": "USD",
              "value": 34
            }
          }
        },
        "short_description": {
          "html": ""
        }
      },
      {
        "canonical_url": "maya-tunic.html",
        "id": 1780,
        "name": "Maya Tunic",
        "new": 0,
        "rating_summary": 80,
        "review_count": 1,
        "sku": "WT07",
        "special_price": null,
        "custom_image": "http://magento7.nz/media/catalog/product/w/t/wt07-green_main_2.jpg",
        "product_type": "configurable",
        "final_price": 29,
        "discount_percent": 0,
        "url_key": "maya-tunic",
        "image": {
          "label": "Maya Tunic",
          "url": null
        },
        "price": {
          "regularPrice": {
            "amount": {
              "currency": "USD",
              "value": 29
            }
          }
        },
        "short_description": {
          "html": ""
        }
      },
      {
        "canonical_url": "desiree-fitness-tee.html",
        "id": 1588,
        "name": "Desiree Fitness Tee",
        "new": 0,
        "rating_summary": 73,
        "review_count": 3,
        "sku": "WS05",
        "special_price": null,
        "custom_image": "http://magento7.nz/media/catalog/product/w/s/ws05-black_main_2.jpg",
        "product_type": "configurable",
        "final_price": 24,
        "discount_percent": 0,
        "url_key": "desiree-fitness-tee",
        "image": {
          "label": "Desiree Fitness Tee",
          "url": null
        },
        "price": {
          "regularPrice": {
            "amount": {
              "currency": "USD",
              "value": 24
            }
          }
        },
        "short_description": {
          "html": ""
        }
      },
      {
        "canonical_url": "olivia-1-4-zip-light-jacket.html",
        "id": 1396,
        "name": "Olivia 1/4 Zip Light Jacket",
        "new": 0,
        "rating_summary": 0,
        "review_count": 0,
        "sku": "WJ12",
        "special_price": null,
        "custom_image": "http://magento7.nz/media/catalog/product/w/j/wj12-blue_main_2.jpg",
        "product_type": "configurable",
        "final_price": 77,
        "discount_percent": 0,
        "url_key": "olivia-1-4-zip-light-jacket",
        "image": {
          "label": "Olivia 1/4 Zip Light Jacket",
          "url": null
        },
        "price": {
          "regularPrice": {
            "amount": {
              "currency": "USD",
              "value": 77
            }
          }
        },
        "short_description": {
          "html": ""
        }
      },
      {
        "canonical_url": "circe-hooded-ice-fleece.html",
        "id": 1210,
        "name": "Circe Hooded Ice Fleece",
        "new": 0,
        "rating_summary": 0,
        "review_count": 0,
        "sku": "WH12",
        "special_price": null,
        "custom_image": "http://magento7.nz/media/catalog/product/w/h/wh12-gray_main_2.jpg",
        "product_type": "configurable",
        "final_price": 68,
        "discount_percent": 0,
        "url_key": "circe-hooded-ice-fleece",
        "image": {
          "label": "Circe Hooded Ice Fleece",
          "url": null
        },
        "price": {
          "regularPrice": {
            "amount": {
              "currency": "USD",
              "value": 68
            }
          }
        },
        "short_description": {
          "html": ""
        }
      },
      {
        "canonical_url": "chloe-compete-tank.html",
        "id": 1764,
        "name": "Chloe Compete Tank",
        "new": 0,
        "rating_summary": 73,
        "review_count": 3,
        "sku": "WT06",
        "special_price": null,
        "custom_image": "http://magento7.nz/media/catalog/product/w/t/wt06-blue_main_2.jpg",
        "product_type": "configurable",
        "final_price": 39,
        "discount_percent": 0,
        "url_key": "chloe-compete-tank",
        "image": {
          "label": "Chloe Compete Tank",
          "url": null
        },
        "price": {
          "regularPrice": {
            "amount": {
              "currency": "USD",
              "value": 39
            }
          }
        },
        "short_description": {
          "html": ""
        }
      },
      {
        "canonical_url": "gwyn-endurance-tee.html",
        "id": 1572,
        "name": "Gwyn Endurance Tee",
        "new": 0,
        "rating_summary": 87,
        "review_count": 3,
        "sku": "WS01",
        "special_price": null,
        "custom_image": "http://magento7.nz/media/catalog/product/w/s/ws01-black_main_2.jpg",
        "product_type": "configurable",
        "final_price": 24,
        "discount_percent": 0,
        "url_key": "gwyn-endurance-tee",
        "image": {
          "label": "Gwyn Endurance Tee",
          "url": null
        },
        "price": {
          "regularPrice": {
            "amount": {
              "currency": "USD",
              "value": 24
            }
          }
        },
        "short_description": {
          "html": ""
        }
      },
      {
        "canonical_url": "juno-jacket.html",
        "id": 1380,
        "name": "Juno Jacket",
        "new": 0,
        "rating_summary": 87,
        "review_count": 3,
        "sku": "WJ06",
        "special_price": null,
        "custom_image": "http://magento7.nz/media/catalog/product/w/j/wj06-purple_main_2.jpg",
        "product_type": "configurable",
        "final_price": 77,
        "discount_percent": 0,
        "url_key": "juno-jacket",
        "image": {
          "label": "Juno Jacket",
          "url": null
        },
        "price": {
          "regularPrice": {
            "amount": {
              "currency": "USD",
              "value": 77
            }
          }
        },
        "short_description": {
          "html": ""
        }
      },
      {
        "canonical_url": "eos-v-neck-hoodie.html",
        "id": 1194,
        "name": "Eos V-Neck Hoodie",
        "new": 0,
        "rating_summary": 0,
        "review_count": 0,
        "sku": "WH11",
        "special_price": null,
        "custom_image": "http://magento7.nz/media/catalog/product/w/h/wh11-blue_main_2.jpg",
        "product_type": "configurable",
        "final_price": 54,
        "discount_percent": 0,
        "url_key": "eos-v-neck-hoodie",
        "image": {
          "label": "Eos V-Neck Hoodie",
          "url": null
        },
        "price": {
          "regularPrice": {
            "amount": {
              "currency": "USD",
              "value": 54
            }
          }
        },
        "short_description": {
          "html": ""
        }
      },
      {
        "canonical_url": "leah-yoga-top.html",
        "id": 1748,
        "name": "Leah Yoga Top",
        "new": 0,
        "rating_summary": 0,
        "review_count": 0,
        "sku": "WT05",
        "special_price": null,
        "custom_image": "http://magento7.nz/media/catalog/product/w/t/wt05-purple_main_4.jpg",
        "product_type": "configurable",
        "final_price": 39,
        "discount_percent": 0,
        "url_key": "leah-yoga-top",
        "image": {
          "label": "Leah Yoga Top",
          "url": null
        },
        "price": {
          "regularPrice": {
            "amount": {
              "currency": "USD",
              "value": 39
            }
          }
        },
        "short_description": {
          "html": ""
        }
      },
      {
        "canonical_url": "radiant-tee.html",
        "id": 1556,
        "name": "Radiant Tee",
        "new": 0,
        "rating_summary": 60,
        "review_count": 3,
        "sku": "WS12",
        "special_price": null,
        "custom_image": "http://magento7.nz/media/catalog/product/w/s/ws12-orange_main_4.jpg",
        "product_type": "configurable",
        "final_price": 22,
        "discount_percent": 0,
        "url_key": "radiant-tee",
        "image": {
          "label": "Radiant Tee",
          "url": null
        },
        "price": {
          "regularPrice": {
            "amount": {
              "currency": "USD",
              "value": 22
            }
          }
        },
        "short_description": {
          "html": ""
        }
      },
      {
        "canonical_url": "neve-studio-dance-jacket.html",
        "id": 1364,
        "name": "Neve Studio Dance Jacket",
        "new": 1,
        "rating_summary": 87,
        "review_count": 3,
        "sku": "WJ11",
        "special_price": null,
        "custom_image": "http://magento7.nz/media/catalog/product/w/j/wj11-blue_main_2.jpg",
        "product_type": "configurable",
        "final_price": 69,
        "discount_percent": 0,
        "url_key": "neve-studio-dance-jacket",
        "image": {
          "label": "Neve Studio Dance Jacket",
          "url": null
        },
        "price": {
          "regularPrice": {
            "amount": {
              "currency": "USD",
              "value": 69
            }
          }
        },
        "short_description": {
          "html": ""
        }
      },
      {
        "canonical_url": "helena-hooded-fleece.html",
        "id": 1178,
        "name": "Helena Hooded Fleece",
        "new": 1,
        "rating_summary": 0,
        "review_count": 0,
        "sku": "WH10",
        "special_price": null,
        "custom_image": "http://magento7.nz/media/catalog/product/w/h/wh10-gray_main_2.jpg",
        "product_type": "configurable",
        "final_price": 55,
        "discount_percent": 0,
        "url_key": "helena-hooded-fleece",
        "image": {
          "label": "Helena Hooded Fleece",
          "url": null
        },
        "price": {
          "regularPrice": {
            "amount": {
              "currency": "USD",
              "value": 55
            }
          }
        },
        "short_description": {
          "html": ""
        }
      },
      {
        "canonical_url": "nona-fitness-tank.html",
        "id": 1732,
        "name": "Nona Fitness Tank",
        "new": 0,
        "rating_summary": 0,
        "review_count": 0,
        "sku": "WT04",
        "special_price": null,
        "custom_image": "http://magento7.nz/media/catalog/product/w/t/wt04-blue_main_2.jpg",
        "product_type": "configurable",
        "final_price": 39,
        "discount_percent": 0,
        "url_key": "nona-fitness-tank",
        "image": {
          "label": "Nona Fitness Tank",
          "url": null
        },
        "price": {
          "regularPrice": {
            "amount": {
              "currency": "USD",
              "value": 39
            }
          }
        },
        "short_description": {
          "html": ""
        }
      }
    ],
    "aggregations": [
      {
        "attribute_code": "price",
        "count": 7,
        "label": "Price",
        "position": null,
        "options": [
          {
            "count": 12,
            "label": "20-30",
            "value": "20_30"
          },
          {
            "count": 15,
            "label": "30-40",
            "value": "30_40"
          },
          {
            "count": 4,
            "label": "40-50",
            "value": "40_50"
          },
          {
            "count": 10,
            "label": "50-60",
            "value": "50_60"
          },
          {
            "count": 5,
            "label": "60-70",
            "value": "60_70"
          },
          {
            "count": 3,
            "label": "70-80",
            "value": "70_80"
          },
          {
            "count": 1,
            "label": "80-90",
            "value": "80_90"
          }
        ]
      },
      {
        "attribute_code": "category_uid",
        "count": 11,
        "label": "Category",
        "position": null,
        "options": [
          {
            "count": 50,
            "label": "Women Tops",
            "value": "MjE="
          },
          {
            "count": 14,
            "label": "Bras & Tanks",
            "value": "MjY="
          },
          {
            "count": 12,
            "label": "Women Sale",
            "value": "MzA="
          },
          {
            "count": 11,
            "label": "Erin Recommends",
            "value": "MzQ="
          },
          {
            "count": 13,
            "label": "Performance Fabrics",
            "value": "MzU="
          },
          {
            "count": 13,
            "label": "New Luma Yoga Collection",
            "value": "OA=="
          },
          {
            "count": 6,
            "label": "Eco Friendly",
            "value": "MzY="
          },
          {
            "count": 12,
            "label": "Tees",
            "value": "MjU="
          },
          {
            "count": 12,
            "label": "Tees",
            "value": "MzM="
          },
          {
            "count": 12,
            "label": "Jackets",
            "value": "MjM="
          },
          {
            "count": 12,
            "label": "Hoodies & Sweatshirts",
            "value": "MjQ="
          }
        ]
      },
      {
        "attribute_code": "material",
        "count": 18,
        "label": "Material",
        "position": 0,
        "options": [
          {
            "count": 9,
            "label": "Cocona&reg; performance fabric",
            "value": "142"
          },
          {
            "count": 16,
            "label": "Cotton",
            "value": "33"
          },
          {
            "count": 6,
            "label": "Fleece",
            "value": "144"
          },
          {
            "count": 2,
            "label": "Hemp",
            "value": "145"
          },
          {
            "count": 1,
            "label": "Jersey",
            "value": "146"
          },
          {
            "count": 2,
            "label": "Mesh",
            "value": "36"
          },
          {
            "count": 1,
            "label": "LumaTech&trade;",
            "value": "147"
          },
          {
            "count": 10,
            "label": "Nylon",
            "value": "37"
          },
          {
            "count": 6,
            "label": "Lycra&reg;",
            "value": "148"
          },
          {
            "count": 22,
            "label": "Polyester",
            "value": "38"
          },
          {
            "count": 1,
            "label": "Microfiber",
            "value": "149"
          },
          {
            "count": 13,
            "label": "Spandex",
            "value": "150"
          },
          {
            "count": 3,
            "label": "HeatTec&reg;",
            "value": "151"
          },
          {
            "count": 5,
            "label": "EverCool&trade;",
            "value": "152"
          },
          {
            "count": 9,
            "label": "Organic Cotton",
            "value": "153"
          },
          {
            "count": 1,
            "label": "TENCEL",
            "value": "154"
          },
          {
            "count": 6,
            "label": "CoolTech&trade;",
            "value": "155"
          },
          {
            "count": 4,
            "label": "Wool",
            "value": "158"
          }
        ]
      },
      {
        "attribute_code": "eco_collection",
        "count": 2,
        "label": "Eco Collection",
        "position": 0,
        "options": [
          {
            "count": 38,
            "label": "No",
            "value": "0"
          },
          {
            "count": 12,
            "label": "Yes",
            "value": "1"
          }
        ]
      },
      {
        "attribute_code": "performance_fabric",
        "count": 2,
        "label": "Performance Fabric",
        "position": 0,
        "options": [
          {
            "count": 35,
            "label": "No",
            "value": "0"
          },
          {
            "count": 15,
            "label": "Yes",
            "value": "1"
          }
        ]
      },
      {
        "attribute_code": "erin_recommends",
        "count": 2,
        "label": "Erin Recommends",
        "position": 0,
        "options": [
          {
            "count": 39,
            "label": "No",
            "value": "0"
          },
          {
            "count": 11,
            "label": "Yes",
            "value": "1"
          }
        ]
      },
      {
        "attribute_code": "new",
        "count": 2,
        "label": "New",
        "position": 0,
        "options": [
          {
            "count": 37,
            "label": "No",
            "value": "0"
          },
          {
            "count": 13,
            "label": "Yes",
            "value": "1"
          }
        ]
      },
      {
        "attribute_code": "sale",
        "count": 2,
        "label": "Sale",
        "position": 0,
        "options": [
          {
            "count": 38,
            "label": "No",
            "value": "0"
          },
          {
            "count": 12,
            "label": "Yes",
            "value": "1"
          }
        ]
      },
      {
        "attribute_code": "style_general",
        "count": 19,
        "label": "Style",
        "position": 0,
        "options": [
          {
            "count": 4,
            "label": "Insulated",
            "value": "116"
          },
          {
            "count": 12,
            "label": "Jacket",
            "value": "117"
          },
          {
            "count": 6,
            "label": "Lightweight",
            "value": "119"
          },
          {
            "count": 5,
            "label": "Hooded",
            "value": "120"
          },
          {
            "count": 1,
            "label": "Heavy Duty",
            "value": "121"
          },
          {
            "count": 2,
            "label": "Rain Coat",
            "value": "122"
          },
          {
            "count": 3,
            "label": "Hard Shell",
            "value": "123"
          },
          {
            "count": 8,
            "label": "Soft Shell",
            "value": "124"
          },
          {
            "count": 4,
            "label": "Windbreaker",
            "value": "125"
          },
          {
            "count": 5,
            "label": "&frac14; zip",
            "value": "127"
          },
          {
            "count": 12,
            "label": "Full Zip",
            "value": "128"
          },
          {
            "count": 2,
            "label": "Reversible",
            "value": "129"
          },
          {
            "count": 5,
            "label": "Bra",
            "value": "130"
          },
          {
            "count": 5,
            "label": "Sweatshirt",
            "value": "132"
          },
          {
            "count": 9,
            "label": "Tank",
            "value": "134"
          },
          {
            "count": 12,
            "label": "Tee",
            "value": "135"
          },
          {
            "count": 10,
            "label": "Pullover",
            "value": "136"
          },
          {
            "count": 9,
            "label": "Hoodie",
            "value": "137"
          },
          {
            "count": 1,
            "label": "Camisole",
            "value": "141"
          }
        ]
      },
      {
        "attribute_code": "pattern",
        "count": 4,
        "label": "Pattern",
        "position": 0,
        "options": [
          {
            "count": 1,
            "label": "Checked",
            "value": "193"
          },
          {
            "count": 2,
            "label": "Color-Blocked",
            "value": "194"
          },
          {
            "count": 46,
            "label": "Solid",
            "value": "196"
          },
          {
            "count": 1,
            "label": "Striped",
            "value": "198"
          }
        ]
      },
      {
        "attribute_code": "climate",
        "count": 10,
        "label": "Climate",
        "position": 0,
        "options": [
          {
            "count": 8,
            "label": "All-Weather",
            "value": "201"
          },
          {
            "count": 4,
            "label": "Cold",
            "value": "202"
          },
          {
            "count": 17,
            "label": "Cool",
            "value": "203"
          },
          {
            "count": 35,
            "label": "Indoor",
            "value": "204"
          },
          {
            "count": 16,
            "label": "Mild",
            "value": "205"
          },
          {
            "count": 2,
            "label": "Rainy",
            "value": "206"
          },
          {
            "count": 21,
            "label": "Spring",
            "value": "207"
          },
          {
            "count": 28,
            "label": "Warm",
            "value": "208"
          },
          {
            "count": 8,
            "label": "Windy",
            "value": "209"
          },
          {
            "count": 6,
            "label": "Wintry",
            "value": "210"
          }
        ]
      }
    ]
  }
}