{
  "categoryList": [
    {
      "id": 4182,
      "name": "Multimedia All-in-One PC",
      "description": null,
      "canonical_url": "pc-systeme/multimedia-pc/multimedia-all-in-one-pc",
      "children_count": "0",
      "image": null,
      "is_anchor": 1,
      "meta_description": null,
      "meta_keywords": null,
      "meta_title": null,
      "product_count": 26,
      "display_mode": "PRODUCTS",
      "video_code": null,
      "ans_set": null,
      "que_set": null,
      "enable_custom_title": 0,
      "custom_title": null,
      "cms_block": null,
      "children": []
    }
  ],
  "products": {
    "total_count": 26,
    "page_info": {
      "current_page": 1,
      "total_pages": 2,
      "page_size": 20
    },
    "items": [
      {
        "canonical_url": "all-in-one-pc-intel-n100-uhd-graphics-23-8",
        "id": 22485,
        "name": "All-in-One PC - Intel N100 - UHD Graphics (23.8\")",
        "rating_summary": 0,
        "review_count": 0,
        "sku": "CLS32018",
        "special_price": null,
        "custom_image": "http://cls-computer-admin.nz/media/catalog/product/c/l/cls32018-50001.jpg",
        "product_type": "simple",
        "final_price": 459,
        "discount_percent": 0,
        "url_key": "all-in-one-pc-intel-n100-uhd-graphics-23-8",
        "back_image": null,
        "image": {
          "label": "All-in-One PC - Intel N100 - UHD Graphics (23.8\")",
          "url": null
        },
        "price": {
          "regularPrice": {
            "amount": {
              "currency": "EUR",
              "value": 459
            }
          }
        },
        "short_description": {
          "html": "<ul>\r\n<li><strong>23.8\"</strong> <strong>Lenovo</strong> A100 AiO Cloud Grey</li>\r\n<li><strong>Intel N100</strong>, bis zu 4x 3.50 GHz</li>\r\n<li><strong>8GB</strong> DDR4-SDRAM, <strong>3200 MHz</strong></li>\r\n<li>Intel UHD Graphics <strong>(IGP)</strong></li>\r\n<li><strong>256GB</strong> M.2 Solid State Drive</li>\r\n<li>Windows 11 <strong>Professional</strong></li>\r\n</ul>"
        }
      },
      {
        "canonical_url": "all-in-one-pc-amd-ryzen-3-7320u-radeon-610m-23-8",
        "id": 22486,
        "name": "All-in-One PC - AMD Ryzen 3 7320U - Radeon 610M (23.8\")",
        "rating_summary": 0,
        "review_count": 0,
        "sku": "CLS32019",
        "special_price": null,
        "custom_image": "http://cls-computer-admin.nz/media/catalog/product/c/l/cls32019-50001.jpg",
        "product_type": "simple",
        "final_price": 569,
        "discount_percent": 0,
        "url_key": "all-in-one-pc-amd-ryzen-3-7320u-radeon-610m-23-8",
        "back_image": null,
        "image": {
          "label": "All-in-One PC - AMD Ryzen 3 7320U - Radeon 610M (23.8\")",
          "url": null
        },
        "price": {
          "regularPrice": {
            "amount": {
              "currency": "EUR",
              "value": 569
            }
          }
        },
        "short_description": {
          "html": "<ul>\r\n<li><strong>23.8\"</strong> <strong>HP</strong> 24-cr0009ng Starry White</li>\r\n<li><strong>AMD Ryzen 3 7320U</strong>, 4x 2.40 GHz</li>\r\n<li><strong>8GB</strong> LPDDR5-SDRAM, <strong>5500 MHz</strong></li>\r\n<li>AMD Radeon 610M Graphics <strong>(IGP)</strong></li>\r\n<li><strong>512GB</strong> M.2 Solid State Drive</li>\r\n<li>Windows 11 <strong>Home</strong></li>\r\n</ul>"
        }
      },
      {
        "canonical_url": "all-in-one-pc-intel-core-i3-1215u-uhd-graphics-23-8",
        "id": 13481,
        "name": "All-in-One PC - Intel Core i3-1215U - UHD Graphics (23.8\")",
        "rating_summary": 0,
        "review_count": 0,
        "sku": "CLS32002",
        "special_price": null,
        "custom_image": "http://cls-computer-admin.nz/media/catalog/product/p/c/pcs8954956-1_1.jpg",
        "product_type": "simple",
        "final_price": 606,
        "discount_percent": 0,
        "url_key": "all-in-one-pc-intel-core-i3-1215u-uhd-graphics-23-8",
        "back_image": null,
        "image": {
          "label": "All-in-One PC - Intel Core i3-1215U - UHD Graphics (23.8\")",
          "url": null
        },
        "price": {
          "regularPrice": {
            "amount": {
              "currency": "EUR",
              "value": 606
            }
          }
        },
        "short_description": {
          "html": "<ul>\r\n<li><strong>23.8\"</strong> <strong>HP</strong> 24-cb1103ng Starry White</li>\r\n<li><strong>Intel Core i3-1215U</strong>, 6x 1.20 GHz</li>\r\n<li><strong>8GB</strong> DDR4-SDRAM, <strong>3200 MHz</strong></li>\r\n<li>Intel UHD Graphics <strong>(IGP)</strong></li>\r\n<li><strong>256GB</strong> M.2 Solid State Drive</li>\r\n<li>Windows 11 <strong>Professional</strong></li>\r\n</ul>"
        }
      },
      {
        "canonical_url": "all-in-one-pc-intel-core-i3-13100t-uhd-graphics-23-8",
        "id": 22484,
        "name": "All-in-One PC - Intel Core i3-13100T - UHD Graphics (23.8\")",
        "rating_summary": 0,
        "review_count": 0,
        "sku": "CLS32017",
        "special_price": null,
        "custom_image": "http://cls-computer-admin.nz/media/catalog/product/c/l/cls32017-50001.webp",
        "product_type": "simple",
        "final_price": 654,
        "discount_percent": 0,
        "url_key": "all-in-one-pc-intel-core-i3-13100t-uhd-graphics-23-8",
        "back_image": null,
        "image": {
          "label": "All-in-One PC - Intel Core i3-13100T - UHD Graphics (23.8\")",
          "url": null
        },
        "price": {
          "regularPrice": {
            "amount": {
              "currency": "EUR",
              "value": 654
            }
          }
        },
        "short_description": {
          "html": "<ul>\r\n<li><strong>23.8\"</strong> <strong>HP</strong> ProOne 440 G9 AiO Black</li>\r\n<li><strong>Intel Core i3-13100T</strong>, 4x 2.50 GHz</li>\r\n<li><strong>16GB</strong> DDR4-SDRAM, <strong>3200 MHz</strong></li>\r\n<li>Intel UHD Graphics 730 <strong>(IGP)</strong></li>\r\n<li><strong>512GB</strong> M.2 Solid State Drive</li>\r\n<li>Windows 11 <strong>Professional</strong></li>\r\n</ul>"
        }
      },
      {
        "canonical_url": "all-in-one-pc-intel-core-i3-1315u-uhd-graphics-27-1",
        "id": 22523,
        "name": "All-in-One PC - Intel Core i3-1315U - UHD Graphics (27\")",
        "rating_summary": 0,
        "review_count": 0,
        "sku": "CLS32022",
        "special_price": null,
        "custom_image": "http://cls-computer-admin.nz/media/catalog/product/c/l/cls32022-6000.webp",
        "product_type": "simple",
        "final_price": 696,
        "discount_percent": 0,
        "url_key": "all-in-one-pc-intel-core-i3-1315u-uhd-graphics-27",
        "back_image": null,
        "image": {
          "label": "All-in-One PC - Intel Core i3-1315U - UHD Graphics (27\")",
          "url": null
        },
        "price": {
          "regularPrice": {
            "amount": {
              "currency": "EUR",
              "value": 696
            }
          }
        },
        "short_description": {
          "html": "<ul>\r\n<li><strong>27\"</strong> <strong>HP</strong> All-in-One 27-cr0107n, weiß</li>\r\n<li><strong>Intel Core i3-1315U</strong>, 6x 1.20 GHz</li>\r\n<li><strong>8GB</strong> DDR5-SDRAM, <strong>4800 MHz</strong></li>\r\n<li>Intel UHD Graphics <strong>(IGP)</strong></li>\r\n<li><strong>512GB</strong> M.2 Solid State Drive</li>\r\n<li>Windows 11 <strong>Professional</strong></li>\r\n</ul>"
        }
      },
      {
        "canonical_url": "all-in-one-pc-intel-core-i5-14500t-uhd-graphics-23-8",
        "id": 13482,
        "name": "All-in-One PC - Intel Core i5-14500T - UHD Graphics (23.8\")",
        "rating_summary": 0,
        "review_count": 0,
        "sku": "CLS32003",
        "special_price": null,
        "custom_image": "http://cls-computer-admin.nz/media/catalog/product/p/c/pcs8861616-1.webp",
        "product_type": "simple",
        "final_price": 732,
        "discount_percent": 0,
        "url_key": "all-in-one-pc-intel-core-i5-14500t-uhd-graphics-23-8",
        "back_image": null,
        "image": {
          "label": "All-in-One PC - Intel Core i5-14500T - UHD Graphics (23.8\")",
          "url": null
        },
        "price": {
          "regularPrice": {
            "amount": {
              "currency": "EUR",
              "value": 732
            }
          }
        },
        "short_description": {
          "html": "<ul>\r\n<li><strong>23.8\"</strong> <strong>HP</strong> ProOne 440 G9 AiO Black</li>\r\n<li><strong>Intel Core i5-14500T</strong>, 14x 1.70 GHz</li>\r\n<li><strong>8GB</strong> DDR5-SDRAM, <strong>4800 MHz</strong></li>\r\n<li>Intel UHD Graphics 770 <strong>(IGP)</strong></li>\r\n<li><strong>256GB</strong> M.2 Solid State Drive</li>\r\n<li>Windows 11 <strong>Professional</strong></li>\r\n</ul>"
        }
      },
      {
        "canonical_url": "all-in-one-pc-amd-ryzen-5-7520u-radeon-610m-27",
        "id": 13499,
        "name": "All-in-One PC - AMD Ryzen 5 7520U - Radeon 610M (27\")",
        "rating_summary": 0,
        "review_count": 0,
        "sku": "CLS32011",
        "special_price": null,
        "custom_image": "http://cls-computer-admin.nz/media/catalog/product/p/c/pcs8785461-1.webp",
        "product_type": "simple",
        "final_price": 740,
        "discount_percent": 0,
        "url_key": "all-in-one-pc-amd-ryzen-5-7520u-radeon-610m-27",
        "back_image": null,
        "image": {
          "label": "All-in-One PC - AMD Ryzen 5 7520U - Radeon 610M (27\")",
          "url": null
        },
        "price": {
          "regularPrice": {
            "amount": {
              "currency": "EUR",
              "value": 740
            }
          }
        },
        "short_description": {
          "html": "<ul>\r\n<li><strong>27\"</strong> <strong>HP</strong> All-in-One 27-cr0007ng Weiß</li>\r\n<li><strong>AMD Ryzen 5 7520U</strong>, 4x 2.80 GHz</li>\r\n<li><strong>16GB</strong> LPDDR5-SDRAM, <strong>5500 MHz</strong></li>\r\n<li>AMD Radeon 610M Graphics <strong>(IGP)</strong></li>\r\n<li><strong>512GB</strong> M.2 Solid State Drive</li>\r\n<li>Windows 11 <strong>Home</strong></li>\r\n</ul>"
        }
      },
      {
        "canonical_url": "all-in-one-pc-intel-core-i5-1235u-uhd-graphics-23-8",
        "id": 13479,
        "name": "All-in-One PC - Intel Core i5-1235U - UHD Graphics (23.8\")",
        "rating_summary": 0,
        "review_count": 0,
        "sku": "CLS32001",
        "special_price": null,
        "custom_image": "http://cls-computer-admin.nz/media/catalog/product/p/c/pcs8954956-1.jpg",
        "product_type": "simple",
        "final_price": 746,
        "discount_percent": 0,
        "url_key": "all-in-one-pc-intel-core-i5-1235u-uhd-graphics-23-8",
        "back_image": null,
        "image": {
          "label": "All-in-One PC - Intel Core i5-1235U - UHD Graphics (23.8\")",
          "url": null
        },
        "price": {
          "regularPrice": {
            "amount": {
              "currency": "EUR",
              "value": 746
            }
          }
        },
        "short_description": {
          "html": "<ul>\r\n<li><strong>23.8\"</strong> <strong>HP</strong> 24-cb1111ng Starry White</li>\r\n<li><strong>Intel Core i5-1235U</strong>, 10x 1.30 GHz</li>\r\n<li><strong>16GB</strong> DDR4-SDRAM, <strong>3200 MHz</strong></li>\r\n<li>Intel UHD Graphics <strong>(IGP)</strong></li>\r\n<li><strong>512GB</strong> M.2 Solid State Drive</li>\r\n<li>Windows 11 <strong>Professional</strong></li>\r\n</ul>"
        }
      },
      {
        "canonical_url": "all-in-one-pc-intel-core-ultra-5-125h-arc-graphics-23-8",
        "id": 22490,
        "name": "All-in-One PC - Intel Core Ultra 5 125H - Arc Graphics (23.8\")",
        "rating_summary": 0,
        "review_count": 0,
        "sku": "CLS32021",
        "special_price": null,
        "custom_image": "http://cls-computer-admin.nz/media/catalog/product/c/l/cls32021-5001.jpg",
        "product_type": "simple",
        "final_price": 832,
        "discount_percent": 0,
        "url_key": "all-in-one-pc-intel-core-ultra-5-125h-arc-graphics-23-8",
        "back_image": null,
        "image": {
          "label": "All-in-One PC - Intel Core Ultra 5 125H - Arc Graphics (23.8\")",
          "url": null
        },
        "price": {
          "regularPrice": {
            "amount": {
              "currency": "EUR",
              "value": 832
            }
          }
        },
        "short_description": {
          "html": "<ul>\r\n<li><strong>23.8\"</strong> <strong>HP</strong> AiO 24-cr1002ng Starry White</li>\r\n<li><strong>Intel Core Ultra 5 125H</strong>, 14x 1.20 GHz</li>\r\n<li><strong>16GB</strong> DDR5-SDRAM, <strong>4800 MHz</strong></li>\r\n<li>Intel Arc Graphics <strong>(IGP)</strong></li>\r\n<li><strong>512GB</strong> M.2 Solid State Drive</li>\r\n<li>Windows 11 <strong>Home</strong></li>\r\n</ul>"
        }
      },
      {
        "canonical_url": "all-in-one-pc-intel-core-5-120u-intel-graphics-27",
        "id": 22524,
        "name": "All-in-One PC - Intel Core 5 120U - Intel Graphics (27\")",
        "rating_summary": 0,
        "review_count": 0,
        "sku": "CLS32023",
        "special_price": null,
        "custom_image": "http://cls-computer-admin.nz/media/catalog/product/c/l/cls32023-6000.webp",
        "product_type": "simple",
        "final_price": 849,
        "discount_percent": 0,
        "url_key": "all-in-one-pc-intel-core-5-120u-intel-graphics-27",
        "back_image": null,
        "image": {
          "label": "All-in-One PC - Intel Core 5 120U - Intel Graphics (27\")",
          "url": null
        },
        "price": {
          "regularPrice": {
            "amount": {
              "currency": "EUR",
              "value": 849
            }
          }
        },
        "short_description": {
          "html": "<ul>\r\n<li><strong>27\"</strong> <strong>MSI</strong> Modern AM272P 1M, schwarz</li>\r\n<li><strong>Intel Core 5 120U</strong>, 10x 1.40 GHz</li>\r\n<li><strong>8GB</strong> DDR5-SDRAM, <strong>4800 MHz</strong></li>\r\n<li>Intel Graphics <strong>(IGP)</strong></li>\r\n<li><strong>512GB</strong> M.2 Solid State Drive</li>\r\n<li>Windows 11 <strong>Professional</strong></li>\r\n</ul>"
        }
      },
      {
        "canonical_url": "all-in-one-pc-intel-core-i5-13500t-uhd-graphics-23-8",
        "id": 22489,
        "name": "All-in-One PC - Intel Core i5-13500T - UHD Graphics (23.8\")",
        "rating_summary": 0,
        "review_count": 0,
        "sku": "CLS32020",
        "special_price": null,
        "custom_image": "http://cls-computer-admin.nz/media/catalog/product/c/l/cls32020-50001.jpg",
        "product_type": "simple",
        "final_price": 869,
        "discount_percent": 0,
        "url_key": "all-in-one-pc-intel-core-i5-13500t-uhd-graphics-23-8",
        "back_image": null,
        "image": {
          "label": "All-in-One PC - Intel Core i5-13500T - UHD Graphics (23.8\")",
          "url": null
        },
        "price": {
          "regularPrice": {
            "amount": {
              "currency": "EUR",
              "value": 869
            }
          }
        },
        "short_description": {
          "html": "<ul>\r\n<li><strong>23.8\"</strong> <strong>HP</strong> ProOne 440 G9 schwarz</li>\r\n<li><strong>Intel Core i5-13500T</strong>, 14x 1.60 GHz</li>\r\n<li><strong>16GB</strong> DDR4-SDRAM, <strong>3200 MHz</strong></li>\r\n<li>Intel UHD 770 Graphics <strong>(IGP)</strong></li>\r\n<li><strong>512GB</strong> M.2 Solid State Drive</li>\r\n<li>Windows 11 <strong>Professional</strong></li>\r\n</ul>"
        }
      },
      {
        "canonical_url": "all-in-one-pc-intel-core-i5-13420h-uhd-graphics-27",
        "id": 13497,
        "name": "All-in-One PC - Intel Core i5-13420H - UHD Graphics (27\")",
        "rating_summary": 0,
        "review_count": 0,
        "sku": "CLS32009",
        "special_price": null,
        "custom_image": "http://cls-computer-admin.nz/media/catalog/product/c/l/cls32002-501_1.webp",
        "product_type": "simple",
        "final_price": 874,
        "discount_percent": 0,
        "url_key": "all-in-one-pc-intel-core-i5-13420h-uhd-graphics-27",
        "back_image": null,
        "image": {
          "label": "All-in-One PC - Intel Core i5-13420H - UHD Graphics (27\")",
          "url": null
        },
        "price": {
          "regularPrice": {
            "amount": {
              "currency": "EUR",
              "value": 874
            }
          }
        },
        "short_description": {
          "html": "<ul>\r\n<li><strong>27\"</strong> Lenovo ThinkCentre Neo G5 Black</li>\r\n<li><strong>Intel Core i5-13420H</strong>, 8x 2.10 GHz</li>\r\n<li><strong>16GB</strong> DDR5-SDRAM, <strong>4800 MHz</strong></li>\r\n<li>Intel UHD Graphics <strong>(IGP)</strong></li>\r\n<li><strong>512GB</strong> M.2 Solid State Drive</li>\r\n<li>Windows 11 <strong>Professional</strong></li>\r\n</ul>"
        }
      },
      {
        "canonical_url": "all-in-one-pc-amd-ryzen-7-7735h-radeon-680m-23-8",
        "id": 13489,
        "name": "All-in-One PC - AMD Ryzen 7 7735H - Radeon 680M (23.8\")",
        "rating_summary": 0,
        "review_count": 0,
        "sku": "CLS32008",
        "special_price": null,
        "custom_image": "http://cls-computer-admin.nz/media/catalog/product/p/c/pcs9024252-1.webp",
        "product_type": "simple",
        "final_price": 878,
        "discount_percent": 0,
        "url_key": "all-in-one-pc-amd-ryzen-7-7735h-radeon-680m-23-8",
        "back_image": null,
        "image": {
          "label": "All-in-One PC - AMD Ryzen 7 7735H - Radeon 680M (23.8\")",
          "url": null
        },
        "price": {
          "regularPrice": {
            "amount": {
              "currency": "EUR",
              "value": 878
            }
          }
        },
        "short_description": {
          "html": "<ul>\r\n<li><strong>23.8\"</strong> <strong>Lenovo</strong> IdeaCentre AiO 3 Grey</li>\r\n<li><strong>AMD Ryzen 7 7735H</strong>, 8x 3.20 GHz</li>\r\n<li><strong>16GB</strong> DDR5-SDRAM, <strong>4800 MHz</strong></li>\r\n<li>AMD Radeon 680M Graphics <strong>(IGP)</strong></li>\r\n<li><strong>1TB</strong> M.2 Solid State Drive</li>\r\n<li>Windows 11 <strong>Home</strong></li>\r\n</ul>"
        }
      },
      {
        "canonical_url": "all-in-one-pc-amd-ryzen-7730u-radeon-graphics-27",
        "id": 22525,
        "name": "All-in-One PC - AMD Ryzen 7730U - Radeon Graphics (27\")",
        "rating_summary": 0,
        "review_count": 0,
        "sku": "CLS32024",
        "special_price": null,
        "custom_image": "http://cls-computer-admin.nz/media/catalog/product/c/l/cls32024-60001.webp",
        "product_type": "simple",
        "final_price": 896,
        "discount_percent": 0,
        "url_key": "all-in-one-pc-amd-ryzen-7730u-radeon-graphics-27",
        "back_image": null,
        "image": {
          "label": "All-in-One PC - AMD Ryzen 7730U - Radeon Graphics (27\")",
          "url": null
        },
        "price": {
          "regularPrice": {
            "amount": {
              "currency": "EUR",
              "value": 896
            }
          }
        },
        "short_description": {
          "html": "<ul>\r\n<li><strong>27\"</strong> <strong>HP</strong> All-in-One 27-cr0470ng, weiß</li>\r\n<li><strong>AMD Ryzen 7 7730U</strong>, 8x 2.00 GHz</li>\r\n<li><strong>16GB</strong> DDR4-SDRAM, <strong>3200 MHz</strong></li>\r\n<li>AMD Radeon Graphics <strong>(IGP)</strong></li>\r\n<li><strong>1TB</strong> M.2 Solid State Drive</li>\r\n<li>Windows 11 <strong>Home</strong></li>\r\n</ul>"
        }
      },
      {
        "canonical_url": "all-in-one-pc-intel-core-i5-12450h-uhd-graphics-27",
        "id": 13507,
        "name": "All-in-One PC - Intel Core i5-12450H - UHD Graphics (27\")",
        "rating_summary": 0,
        "review_count": 0,
        "sku": "CLS32013",
        "special_price": null,
        "custom_image": "http://cls-computer-admin.nz/media/catalog/product/c/l/cls32013-6001.jpg",
        "product_type": "simple",
        "final_price": 932,
        "discount_percent": 0,
        "url_key": "all-in-one-pc-intel-core-i5-12450h-uhd-graphics-27",
        "back_image": null,
        "image": {
          "label": "All-in-One PC - Intel Core i5-12450H - UHD Graphics (27\")",
          "url": null
        },
        "price": {
          "regularPrice": {
            "amount": {
              "currency": "EUR",
              "value": 932
            }
          }
        },
        "short_description": {
          "html": "<ul>\r\n<li><strong>27\"</strong> <strong>Acer</strong> Aspire C27-1800 Schwarz</li>\r\n<li><strong>Intel Core i5-12450H</strong>, 8x 1.50 GHz</li>\r\n<li><strong>16GB</strong> DDR4-SDRAM, <strong>3200 MHz</strong></li>\r\n<li>Intel UHD Graphics <strong>(IGP)</strong></li>\r\n<li><strong>1TB</strong> M.2 Solid State Drive</li>\r\n<li>Windows 11 <strong>Professional</strong></li>\r\n</ul>"
        }
      },
      {
        "canonical_url": "all-in-one-pc-intel-core-i7-13620h-uhd-graphics-27",
        "id": 13509,
        "name": "All-in-One PC - Intel Core i7-13620H - UHD Graphics (27\")",
        "rating_summary": 0,
        "review_count": 0,
        "sku": "CLS32015",
        "special_price": null,
        "custom_image": "http://cls-computer-admin.nz/media/catalog/product/e/s/es-pcs8847610-1.webp",
        "product_type": "simple",
        "final_price": 966,
        "discount_percent": 0,
        "url_key": "all-in-one-pc-intel-core-i7-13620h-uhd-graphics-27",
        "back_image": null,
        "image": {
          "label": "All-in-One PC - Intel Core i7-13620H - UHD Graphics (27\")",
          "url": null
        },
        "price": {
          "regularPrice": {
            "amount": {
              "currency": "EUR",
              "value": 966
            }
          }
        },
        "short_description": {
          "html": "<ul>\r\n<li><strong>27\"</strong> <strong>Lenovo</strong> ThinkCentre Neo 50a AiO</li>\r\n<li><strong>Intel Core i7-13620H</strong>, 10x 2.40 GHz</li>\r\n<li><strong>16GB</strong> DDR5-SDRAM, <strong>4800 MHz</strong></li>\r\n<li>Intel UHD Graphics <strong>(iGPU)</strong></li>\r\n<li><strong>512GB</strong> M.2 Solid State Drive</li>\r\n<li>Windows 11 <strong>Professional</strong></li>\r\n</ul>"
        }
      },
      {
        "canonical_url": "all-in-one-pc-intel-core-i5-1335u-iris-xe-graphics-27",
        "id": 13498,
        "name": "All-in-One PC - Intel Core i5-1335U - Iris Xe Graphics (27\")",
        "rating_summary": 0,
        "review_count": 0,
        "sku": "CLS32010",
        "special_price": null,
        "custom_image": "http://cls-computer-admin.nz/media/catalog/product/c/l/cls32010-501.webp",
        "product_type": "simple",
        "final_price": 978,
        "discount_percent": 0,
        "url_key": "all-in-one-pc-intel-core-i5-1335u-iris-xe-graphics-27",
        "back_image": null,
        "image": {
          "label": "All-in-One PC - Intel Core i5-1335U - Iris Xe Graphics (27\")",
          "url": null
        },
        "price": {
          "regularPrice": {
            "amount": {
              "currency": "EUR",
              "value": 978
            }
          }
        },
        "short_description": {
          "html": "<ul>\r\n<li><strong>27\"</strong> HP 27-cr0402ng Weiß</li>\r\n<li><strong>Intel Core i5-1335U</strong>, 10x 1.30 GHz</li>\r\n<li><strong>16GB</strong> DDR4-SDRAM, <strong>3200 MHz</strong></li>\r\n<li>Intel Iris Xe Graphics <strong>(IGP)</strong></li>\r\n<li><strong>1TB</strong> M.2 Solid State Drive</li>\r\n<li>Windows 11 <strong>Home</strong></li>\r\n</ul>"
        }
      },
      {
        "canonical_url": "all-in-one-pc-intel-core-i5-13420h-uhd-graphics-27-1",
        "id": 22526,
        "name": "All-in-One PC - Intel Core i5-13420H - UHD Graphics (27\")",
        "rating_summary": 0,
        "review_count": 0,
        "sku": "CLS32025",
        "special_price": null,
        "custom_image": "http://cls-computer-admin.nz/media/catalog/product/c/l/cls32025-6000.webp",
        "product_type": "simple",
        "final_price": 979,
        "discount_percent": 0,
        "url_key": "all-in-one-pc-intel-core-i5-13420h-uhd-graphics-27",
        "back_image": null,
        "image": {
          "label": "All-in-One PC - Intel Core i5-13420H - UHD Graphics (27\")",
          "url": null
        },
        "price": {
          "regularPrice": {
            "amount": {
              "currency": "EUR",
              "value": 979
            }
          }
        },
        "short_description": {
          "html": "<ul>\r\n<li><strong>27\"</strong> <strong>Lenovo</strong> ThinkCentre Neo Luna Grey</li>\r\n<li><strong>Intel Core i5-13420H</strong>, 8x 2.10 GHz</li>\r\n<li><strong>16GB</strong> DDR5-SDRAM, <strong>4800 MHz</strong></li>\r\n<li>Intel UHD Graphics <strong>(IGP)</strong></li>\r\n<li><strong>1TB</strong> M.2 Solid State Drive</li>\r\n<li>Windows 11 <strong>Professional</strong></li>\r\n</ul>"
        }
      },
      {
        "canonical_url": "all-in-one-pc-intel-core-i5-14500t-uhd-graphics-23-8-1",
        "id": 13485,
        "name": "All-in-One PC - Intel Core i5-14500T - UHD Graphics (23.8\")",
        "rating_summary": 0,
        "review_count": 0,
        "sku": "CLS32005",
        "special_price": null,
        "custom_image": "http://cls-computer-admin.nz/media/catalog/product/c/l/cls32005-401.webp",
        "product_type": "simple",
        "final_price": 984,
        "discount_percent": 0,
        "url_key": "all-in-one-pc-intel-core-i5-14500t-uhd-graphics-23-8",
        "back_image": null,
        "image": {
          "label": "All-in-One PC - Intel Core i5-14500T - UHD Graphics (23.8\")",
          "url": null
        },
        "price": {
          "regularPrice": {
            "amount": {
              "currency": "EUR",
              "value": 984
            }
          }
        },
        "short_description": {
          "html": "<ul>\r\n<li><strong>23.8\"</strong> Dell OptiPlex 7420 Dark Gray</li>\r\n<li><strong>Intel Core i5-14500T</strong>, 14x 1.70 GHz</li>\r\n<li><strong>8GB</strong> DDR5-SDRAM, <strong>4800 MHz</strong></li>\r\n<li>Intel UHD Graphics 770 <strong>(IGP)</strong></li>\r\n<li><strong>256GB</strong> M.2 Solid State Drive</li>\r\n<li>Windows 11 <strong>Professional</strong></li>\r\n</ul>"
        }
      },
      {
        "canonical_url": "all-in-one-pc-intel-core-i5-14500t-uhd-graphics-23-8-2",
        "id": 13488,
        "name": "All-in-One PC - Intel Core i5-14500T - UHD Graphics (23.8\")",
        "rating_summary": 0,
        "review_count": 0,
        "sku": "CLS32007",
        "special_price": null,
        "custom_image": "http://cls-computer-admin.nz/media/catalog/product/c/l/cls32007-401.webp",
        "product_type": "simple",
        "final_price": 1008,
        "discount_percent": 0,
        "url_key": "all-in-one-pc-intel-core-i5-14500t-uhd-graphics-23-8",
        "back_image": null,
        "image": {
          "label": "All-in-One PC - Intel Core i5-14500T - UHD Graphics (23.8\")",
          "url": null
        },
        "price": {
          "regularPrice": {
            "amount": {
              "currency": "EUR",
              "value": 1008
            }
          }
        },
        "short_description": {
          "html": "<ul>\r\n<li><strong>23.8\"</strong> HP ProOne 440 G9 AiO Black</li>\r\n<li><strong>Intel Core i5-14500T</strong>, 14x 1.70 GHz</li>\r\n<li><strong>16GB</strong> DDR5-SDRAM, <strong>4800 MHz</strong></li>\r\n<li>Intel UHD Graphics 770 <strong>(IGP)</strong></li>\r\n<li><strong>512GB</strong> M.2 Solid State Drive</li>\r\n<li>Windows 11 <strong>Professional</strong></li>\r\n</ul>"
        }
      }
    ],
    "aggregations": null
  }
}