{
  "categoryList": [
    {
      "id": 34,
      "name": "Erin Recommends",
      "description": null,
      "canonical_url": "collections/erin-recommends.html",
      "children_count": "0",
      "image": null,
      "is_anchor": 1,
      "meta_description": null,
      "meta_keywords": null,
      "meta_title": null,
      "product_count": 21,
      "display_mode": "PRODUCTS",
      "video_code": null,
      "ans_set": null,
      "que_set": null,
      "enable_custom_title": 0,
      "custom_title": null,
      "cms_block": null,
      "children": []
    }
  ],
  "products": {
    "total_count": 21,
    "page_info": {
      "current_page": 1,
      "total_pages": 2,
      "page_size": 15
    },
    "items": [
      {
        "canonical_url": "erika-running-short.html",
        "id": 2040,
        "name": "Erika Running Short",
        "new": 0,
        "rating_summary": 60,
        "review_count": 3,
        "sku": "WSH12",
        "special_price": null,
        "custom_image": "http://magento7.nz/media/catalog/product/w/s/wsh12-green_main_2.jpg",
        "product_type": "configurable",
        "final_price": 45,
        "discount_percent": 0,
        "url_key": "erika-running-short",
        "image": {
          "label": "Erika Running Short",
          "url": null
        },
        "price": {
          "regularPrice": {
            "amount": {
              "currency": "USD",
              "value": 45
            }
          }
        },
        "short_description": {
          "html": ""
        }
      },
      {
        "canonical_url": "ina-compression-short.html",
        "id": 2024,
        "name": "Ina Compression Short",
        "new": 0,
        "rating_summary": 73,
        "review_count": 3,
        "sku": "WSH11",
        "special_price": null,
        "custom_image": "http://magento7.nz/media/catalog/product/w/s/wsh11-blue_main_2.jpg",
        "product_type": "configurable",
        "final_price": 49,
        "discount_percent": 0,
        "url_key": "ina-compression-short",
        "image": {
          "label": "Ina Compression Short",
          "url": null
        },
        "price": {
          "regularPrice": {
            "amount": {
              "currency": "USD",
              "value": 49
            }
          }
        },
        "short_description": {
          "html": ""
        }
      },
      {
        "canonical_url": "portia-capri.html",
        "id": 1903,
        "name": "Portia Capri",
        "new": 0,
        "rating_summary": 0,
        "review_count": 0,
        "sku": "WP13",
        "special_price": null,
        "custom_image": "http://magento7.nz/media/catalog/product/w/p/wp13-orange_main_2.jpg",
        "product_type": "configurable",
        "final_price": 49,
        "discount_percent": 0,
        "url_key": "portia-capri",
        "image": {
          "label": "Portia Capri",
          "url": null
        },
        "price": {
          "regularPrice": {
            "amount": {
              "currency": "USD",
              "value": 49
            }
          }
        },
        "short_description": {
          "html": ""
        }
      },
      {
        "canonical_url": "diana-tights.html",
        "id": 1854,
        "name": "Diana Tights",
        "new": 0,
        "rating_summary": 67,
        "review_count": 3,
        "sku": "WP06",
        "special_price": null,
        "custom_image": "http://magento7.nz/media/catalog/product/w/p/wp06-black_main_2.jpg",
        "product_type": "configurable",
        "final_price": 59,
        "discount_percent": 0,
        "url_key": "diana-tights",
        "image": {
          "label": "Diana Tights",
          "url": null
        },
        "price": {
          "regularPrice": {
            "amount": {
              "currency": "USD",
              "value": 59
            }
          }
        },
        "short_description": {
          "html": ""
        }
      },
      {
        "canonical_url": "sahara-leggings.html",
        "id": 1847,
        "name": "Sahara Leggings",
        "new": 0,
        "rating_summary": 60,
        "review_count": 2,
        "sku": "WP05",
        "special_price": null,
        "custom_image": "http://magento7.nz/media/catalog/product/w/p/wp05-gray_main_4.jpg",
        "product_type": "configurable",
        "final_price": 75,
        "discount_percent": 0,
        "url_key": "sahara-leggings",
        "image": {
          "label": "Sahara Leggings",
          "url": null
        },
        "price": {
          "regularPrice": {
            "amount": {
              "currency": "USD",
              "value": 75
            }
          }
        },
        "short_description": {
          "html": ""
        }
      },
      {
        "canonical_url": "breathe-easy-tank.html",
        "id": 1812,
        "name": "Breathe-Easy Tank",
        "new": 0,
        "rating_summary": 70,
        "review_count": 2,
        "sku": "WT09",
        "special_price": null,
        "custom_image": "http://magento7.nz/media/catalog/product/w/t/wt09-white_main_2.jpg",
        "product_type": "configurable",
        "final_price": 34,
        "discount_percent": 0,
        "url_key": "breathe-easy-tank",
        "image": {
          "label": "Breathe-Easy Tank",
          "url": null
        },
        "price": {
          "regularPrice": {
            "amount": {
              "currency": "USD",
              "value": 34
            }
          }
        },
        "short_description": {
          "html": ""
        }
      },
      {
        "canonical_url": "leah-yoga-top.html",
        "id": 1748,
        "name": "Leah Yoga Top",
        "new": 0,
        "rating_summary": 0,
        "review_count": 0,
        "sku": "WT05",
        "special_price": null,
        "custom_image": "http://magento7.nz/media/catalog/product/w/t/wt05-purple_main_4.jpg",
        "product_type": "configurable",
        "final_price": 39,
        "discount_percent": 0,
        "url_key": "leah-yoga-top",
        "image": {
          "label": "Leah Yoga Top",
          "url": null
        },
        "price": {
          "regularPrice": {
            "amount": {
              "currency": "USD",
              "value": 39
            }
          }
        },
        "short_description": {
          "html": ""
        }
      },
      {
        "canonical_url": "nora-practice-tank.html",
        "id": 1716,
        "name": "Nora Practice Tank",
        "new": 1,
        "rating_summary": 0,
        "review_count": 0,
        "sku": "WT03",
        "special_price": null,
        "custom_image": "http://magento7.nz/media/catalog/product/w/t/wt03-red_main_2.jpg",
        "product_type": "configurable",
        "final_price": 39,
        "discount_percent": 0,
        "url_key": "nora-practice-tank",
        "image": {
          "label": "Nora Practice Tank",
          "url": null
        },
        "price": {
          "regularPrice": {
            "amount": {
              "currency": "USD",
              "value": 39
            }
          }
        },
        "short_description": {
          "html": ""
        }
      },
      {
        "canonical_url": "diva-gym-tee.html",
        "id": 1540,
        "name": "Diva Gym Tee",
        "new": 0,
        "rating_summary": 87,
        "review_count": 3,
        "sku": "WS11",
        "special_price": null,
        "custom_image": "http://magento7.nz/media/catalog/product/w/s/ws11-yellow_main_2.jpg",
        "product_type": "configurable",
        "final_price": 32,
        "discount_percent": 0,
        "url_key": "diva-gym-tee",
        "image": {
          "label": "Diva Gym Tee",
          "url": null
        },
        "price": {
          "regularPrice": {
            "amount": {
              "currency": "USD",
              "value": 32
            }
          }
        },
        "short_description": {
          "html": ""
        }
      },
      {
        "canonical_url": "juliana-short-sleeve-tee.html",
        "id": 1476,
        "name": "Juliana Short-Sleeve Tee",
        "new": 1,
        "rating_summary": 60,
        "review_count": 2,
        "sku": "WS07",
        "special_price": null,
        "custom_image": "http://magento7.nz/media/catalog/product/w/s/ws07-black_main_2.jpg",
        "product_type": "configurable",
        "final_price": 42,
        "discount_percent": 0,
        "url_key": "juliana-short-sleeve-tee",
        "image": {
          "label": "Juliana Short-Sleeve Tee",
          "url": null
        },
        "price": {
          "regularPrice": {
            "amount": {
              "currency": "USD",
              "value": 42
            }
          }
        },
        "short_description": {
          "html": ""
        }
      },
      {
        "canonical_url": "jade-yoga-jacket.html",
        "id": 1332,
        "name": "Jade Yoga Jacket",
        "new": 0,
        "rating_summary": 87,
        "review_count": 3,
        "sku": "WJ09",
        "special_price": null,
        "custom_image": "http://magento7.nz/media/catalog/product/w/j/wj09-green_main_2.jpg",
        "product_type": "configurable",
        "final_price": 32,
        "discount_percent": 0,
        "url_key": "jade-yoga-jacket",
        "image": {
          "label": "Jade Yoga Jacket",
          "url": null
        },
        "price": {
          "regularPrice": {
            "amount": {
              "currency": "USD",
              "value": 32
            }
          }
        },
        "short_description": {
          "html": ""
        }
      },
      {
        "canonical_url": "adrienne-trek-jacket.html",
        "id": 1316,
        "name": "Adrienne Trek Jacket",
        "new": 0,
        "rating_summary": 60,
        "review_count": 2,
        "sku": "WJ08",
        "special_price": null,
        "custom_image": "http://magento7.nz/media/catalog/product/w/j/wj08-gray_main_2.jpg",
        "product_type": "configurable",
        "final_price": 57,
        "discount_percent": 0,
        "url_key": "adrienne-trek-jacket",
        "image": {
          "label": "Adrienne Trek Jacket",
          "url": null
        },
        "price": {
          "regularPrice": {
            "amount": {
              "currency": "USD",
              "value": 57
            }
          }
        },
        "short_description": {
          "html": ""
        }
      },
      {
        "canonical_url": "stellar-solar-jacket.html",
        "id": 1220,
        "name": "Stellar Solar Jacket",
        "new": 1,
        "rating_summary": 67,
        "review_count": 3,
        "sku": "WJ01",
        "special_price": null,
        "custom_image": "http://magento7.nz/media/catalog/product/w/j/wj01-red_main_2.jpg",
        "product_type": "configurable",
        "final_price": 75,
        "discount_percent": 0,
        "url_key": "stellar-solar-jacket",
        "image": {
          "label": "Stellar Solar Jacket",
          "url": null
        },
        "price": {
          "regularPrice": {
            "amount": {
              "currency": "USD",
              "value": 75
            }
          }
        },
        "short_description": {
          "html": ""
        }
      },
      {
        "canonical_url": "eos-v-neck-hoodie.html",
        "id": 1194,
        "name": "Eos V-Neck Hoodie",
        "new": 0,
        "rating_summary": 0,
        "review_count": 0,
        "sku": "WH11",
        "special_price": null,
        "custom_image": "http://magento7.nz/media/catalog/product/w/h/wh11-blue_main_2.jpg",
        "product_type": "configurable",
        "final_price": 54,
        "discount_percent": 0,
        "url_key": "eos-v-neck-hoodie",
        "image": {
          "label": "Eos V-Neck Hoodie",
          "url": null
        },
        "price": {
          "regularPrice": {
            "amount": {
              "currency": "USD",
              "value": 54
            }
          }
        },
        "short_description": {
          "html": ""
        }
      },
      {
        "canonical_url": "phoebe-zipper-sweatshirt.html",
        "id": 1130,
        "name": "Phoebe Zipper Sweatshirt",
        "new": 1,
        "rating_summary": 0,
        "review_count": 0,
        "sku": "WH07",
        "special_price": null,
        "custom_image": "http://magento7.nz/media/catalog/product/w/h/wh07-gray_main_2.jpg",
        "product_type": "configurable",
        "final_price": 59,
        "discount_percent": 0,
        "url_key": "phoebe-zipper-sweatshirt",
        "image": {
          "label": "Phoebe Zipper Sweatshirt",
          "url": null
        },
        "price": {
          "regularPrice": {
            "amount": {
              "currency": "USD",
              "value": 59
            }
          }
        },
        "short_description": {
          "html": ""
        }
      }
    ],
    "aggregations": [
      {
        "attribute_code": "price",
        "count": 5,
        "label": "Price",
        "position": null,
        "options": [
          {
            "count": 7,
            "label": "30-40",
            "value": "30_40"
          },
          {
            "count": 5,
            "label": "40-50",
            "value": "40_50"
          },
          {
            "count": 6,
            "label": "50-60",
            "value": "50_60"
          },
          {
            "count": 2,
            "label": "60-70",
            "value": "60_70"
          },
          {
            "count": 1,
            "label": "70-80",
            "value": "70_80"
          }
        ]
      },
      {
        "attribute_code": "category_uid",
        "count": 17,
        "label": "Category",
        "position": null,
        "options": [
          {
            "count": 5,
            "label": "Women Bottoms",
            "value": "MjI="
          },
          {
            "count": 2,
            "label": "Shorts",
            "value": "Mjg="
          },
          {
            "count": 21,
            "label": "Erin Recommends",
            "value": "MzQ="
          },
          {
            "count": 3,
            "label": "Pants",
            "value": "Mjc="
          },
          {
            "count": 6,
            "label": "Pants",
            "value": "MzI="
          },
          {
            "count": 11,
            "label": "Women Tops",
            "value": "MjE="
          },
          {
            "count": 3,
            "label": "Bras & Tanks",
            "value": "MjY="
          },
          {
            "count": 3,
            "label": "Women Sale",
            "value": "MzA="
          },
          {
            "count": 6,
            "label": "New Luma Yoga Collection",
            "value": "OA=="
          },
          {
            "count": 2,
            "label": "Tees",
            "value": "MjU="
          },
          {
            "count": 2,
            "label": "Tees",
            "value": "MzM="
          },
          {
            "count": 3,
            "label": "Jackets",
            "value": "MjM="
          },
          {
            "count": 3,
            "label": "Hoodies & Sweatshirts",
            "value": "MjQ="
          },
          {
            "count": 5,
            "label": "Bottoms",
            "value": "MTM="
          },
          {
            "count": 2,
            "label": "Shorts",
            "value": "MTk="
          },
          {
            "count": 1,
            "label": "Men Sale",
            "value": "MzE="
          },
          {
            "count": 3,
            "label": "Pants",
            "value": "MTg="
          }
        ]
      },
      {
        "attribute_code": "material",
        "count": 14,
        "label": "Material",
        "position": 0,
        "options": [
          {
            "count": 5,
            "label": "Cocona&reg; performance fabric",
            "value": "142"
          },
          {
            "count": 4,
            "label": "Cotton",
            "value": "33"
          },
          {
            "count": 3,
            "label": "Fleece",
            "value": "144"
          },
          {
            "count": 1,
            "label": "Mesh",
            "value": "36"
          },
          {
            "count": 2,
            "label": "LumaTech&trade;",
            "value": "147"
          },
          {
            "count": 2,
            "label": "Nylon",
            "value": "37"
          },
          {
            "count": 1,
            "label": "Lycra&reg;",
            "value": "148"
          },
          {
            "count": 11,
            "label": "Polyester",
            "value": "38"
          },
          {
            "count": 1,
            "label": "Microfiber",
            "value": "149"
          },
          {
            "count": 2,
            "label": "Rayon",
            "value": "39"
          },
          {
            "count": 8,
            "label": "Spandex",
            "value": "150"
          },
          {
            "count": 5,
            "label": "Organic Cotton",
            "value": "153"
          },
          {
            "count": 3,
            "label": "CoolTech&trade;",
            "value": "155"
          },
          {
            "count": 4,
            "label": "Wool",
            "value": "158"
          }
        ]
      },
      {
        "attribute_code": "eco_collection",
        "count": 2,
        "label": "Eco Collection",
        "position": 0,
        "options": [
          {
            "count": 17,
            "label": "No",
            "value": "0"
          },
          {
            "count": 4,
            "label": "Yes",
            "value": "1"
          }
        ]
      },
      {
        "attribute_code": "performance_fabric",
        "count": 2,
        "label": "Performance Fabric",
        "position": 0,
        "options": [
          {
            "count": 15,
            "label": "No",
            "value": "0"
          },
          {
            "count": 6,
            "label": "Yes",
            "value": "1"
          }
        ]
      },
      {
        "attribute_code": "erin_recommends",
        "count": 1,
        "label": "Erin Recommends",
        "position": 0,
        "options": [
          {
            "count": 21,
            "label": "Yes",
            "value": "1"
          }
        ]
      },
      {
        "attribute_code": "new",
        "count": 2,
        "label": "New",
        "position": 0,
        "options": [
          {
            "count": 15,
            "label": "No",
            "value": "0"
          },
          {
            "count": 6,
            "label": "Yes",
            "value": "1"
          }
        ]
      },
      {
        "attribute_code": "sale",
        "count": 2,
        "label": "Sale",
        "position": 0,
        "options": [
          {
            "count": 17,
            "label": "No",
            "value": "0"
          },
          {
            "count": 4,
            "label": "Yes",
            "value": "1"
          }
        ]
      },
      {
        "attribute_code": "style_bottom",
        "count": 9,
        "label": "Style",
        "position": 0,
        "options": [
          {
            "count": 4,
            "label": "Base Layer",
            "value": "104"
          },
          {
            "count": 1,
            "label": "Basic",
            "value": "105"
          },
          {
            "count": 2,
            "label": "Capri",
            "value": "106"
          },
          {
            "count": 3,
            "label": "Compression",
            "value": "107"
          },
          {
            "count": 4,
            "label": "Leggings",
            "value": "108"
          },
          {
            "count": 2,
            "label": "Snug",
            "value": "111"
          },
          {
            "count": 3,
            "label": "Sweatpants",
            "value": "112"
          },
          {
            "count": 4,
            "label": "Track Pants",
            "value": "114"
          },
          {
            "count": 4,
            "label": "Workout Pants",
            "value": "115"
          }
        ]
      },
      {
        "attribute_code": "style_general",
        "count": 15,
        "label": "Style",
        "position": 0,
        "options": [
          {
            "count": 3,
            "label": "Jacket",
            "value": "117"
          },
          {
            "count": 2,
            "label": "Lightweight",
            "value": "119"
          },
          {
            "count": 2,
            "label": "Hooded",
            "value": "120"
          },
          {
            "count": 1,
            "label": "Rain Coat",
            "value": "122"
          },
          {
            "count": 1,
            "label": "Hard Shell",
            "value": "123"
          },
          {
            "count": 2,
            "label": "Soft Shell",
            "value": "124"
          },
          {
            "count": 1,
            "label": "Windbreaker",
            "value": "125"
          },
          {
            "count": 2,
            "label": "&frac14; zip",
            "value": "127"
          },
          {
            "count": 2,
            "label": "Full Zip",
            "value": "128"
          },
          {
            "count": 2,
            "label": "Sweatshirt",
            "value": "132"
          },
          {
            "count": 3,
            "label": "Tank",
            "value": "134"
          },
          {
            "count": 2,
            "label": "Tee",
            "value": "135"
          },
          {
            "count": 2,
            "label": "Pullover",
            "value": "136"
          },
          {
            "count": 2,
            "label": "Hoodie",
            "value": "137"
          },
          {
            "count": 1,
            "label": "Camisole",
            "value": "141"
          }
        ]
      },
      {
        "attribute_code": "pattern",
        "count": 3,
        "label": "Pattern",
        "position": 0,
        "options": [
          {
            "count": 1,
            "label": "Graphic Print",
            "value": "195"
          },
          {
            "count": 20,
            "label": "Solid",
            "value": "196"
          },
          {
            "count": 1,
            "label": "Striped",
            "value": "198"
          }
        ]
      },
      {
        "attribute_code": "climate",
        "count": 11,
        "label": "Climate",
        "position": 0,
        "options": [
          {
            "count": 8,
            "label": "All-Weather",
            "value": "201"
          },
          {
            "count": 2,
            "label": "Cold",
            "value": "202"
          },
          {
            "count": 10,
            "label": "Cool",
            "value": "203"
          },
          {
            "count": 14,
            "label": "Indoor",
            "value": "204"
          },
          {
            "count": 11,
            "label": "Mild",
            "value": "205"
          },
          {
            "count": 1,
            "label": "Rainy",
            "value": "206"
          },
          {
            "count": 8,
            "label": "Spring",
            "value": "207"
          },
          {
            "count": 9,
            "label": "Warm",
            "value": "208"
          },
          {
            "count": 5,
            "label": "Windy",
            "value": "209"
          },
          {
            "count": 3,
            "label": "Wintry",
            "value": "210"
          },
          {
            "count": 4,
            "label": "Hot",
            "value": "211"
          }
        ]
      }
    ]
  }
}